^C:\USERS\KDN\DOCUMENTS\VISUAL STUDIO 2010\PROJECTS\C_LECTURE\C_LECTURE\CALC5\CALC5\DEBUG\CALC5.EXE.EMBED.MANIFEST.RES|C:\USERS\KDN\DOCUMENTS\VISUAL STUDIO 2010\PROJECTS\C_LECTURE\C_LECTURE\CALC5\CALC5\DEBUG\CALC5.OBJ
/ERRORREPORT:PROMPT /OUT:"C:\Users\kdn\Documents\Visual Studio 2010\Projects\c_lecture\c_lecture\calc5\Debug\calc5.exe" /INCREMENTAL /NOLOGO kernel32.lib user32.lib gdi32.lib winspool.lib comdlg32.lib advapi32.lib shell32.lib ole32.lib oleaut32.lib uuid.lib odbc32.lib odbccp32.lib /MANIFEST /ManifestFile:"Debug\calc5.exe.intermediate.manifest" /MANIFESTUAC:"level='asInvoker' uiAccess='false'" /DEBUG /PDB:"C:\Users\kdn\Documents\Visual Studio 2010\Projects\c_lecture\c_lecture\calc5\Debug\calc5.pdb" /SUBSYSTEM:CONSOLE /TLBID:1 /DYNAMICBASE /NXCOMPAT /IMPLIB:"C:\Users\kdn\Documents\Visual Studio 2010\Projects\c_lecture\c_lecture\calc5\Debug\calc5.lib" /MACHINE:X86 Debug\calc5.exe.embed.manifest.res
Debug\calc5.obj
