^C:\USERS\KDN\DOCUMENTS\VISUAL STUDIO 2010\PROJECTS\CALC\CALC\DEBUG\CALC.EXE.EMBED.MANIFEST.RES|C:\USERS\KDN\DOCUMENTS\VISUAL STUDIO 2010\PROJECTS\CALC\CALC\DEBUG\CALC.OBJ
C:\WINDOWS\GLOBALIZATION\SORTING\SORTDEFAULT.NLS
C:\PROGRAM FILES (X86)\MICROSOFT SDKS\WINDOWS\V7.0A\LIB\KERNEL32.LIB
C:\PROGRAM FILES (X86)\MICROSOFT SDKS\WINDOWS\V7.0A\LIB\USER32.LIB
C:\PROGRAM FILES (X86)\MICROSOFT SDKS\WINDOWS\V7.0A\LIB\GDI32.LIB
C:\PROGRAM FILES (X86)\MICROSOFT SDKS\WINDOWS\V7.0A\LIB\WINSPOOL.LIB
C:\PROGRAM FILES (X86)\MICROSOFT SDKS\WINDOWS\V7.0A\LIB\COMDLG32.LIB
C:\PROGRAM FILES (X86)\MICROSOFT SDKS\WINDOWS\V7.0A\LIB\ADVAPI32.LIB
C:\PROGRAM FILES (X86)\MICROSOFT SDKS\WINDOWS\V7.0A\LIB\SHELL32.LIB
C:\PROGRAM FILES (X86)\MICROSOFT SDKS\WINDOWS\V7.0A\LIB\OLE32.LIB
C:\PROGRAM FILES (X86)\MICROSOFT SDKS\WINDOWS\V7.0A\LIB\OLEAUT32.LIB
C:\PROGRAM FILES (X86)\MICROSOFT SDKS\WINDOWS\V7.0A\LIB\UUID.LIB
C:\PROGRAM FILES (X86)\MICROSOFT SDKS\WINDOWS\V7.0A\LIB\ODBC32.LIB
C:\PROGRAM FILES (X86)\MICROSOFT SDKS\WINDOWS\V7.0A\LIB\ODBCCP32.LIB
C:\USERS\KDN\DOCUMENTS\VISUAL STUDIO 2010\PROJECTS\CALC\CALC\DEBUG\CALC.EXE.EMBED.MANIFEST.RES
C:\USERS\KDN\DOCUMENTS\VISUAL STUDIO 2010\PROJECTS\CALC\CALC\DEBUG\CALC.OBJ
C:\WINDOWS\SYSTEM32\TZRES.DLL
C:\USERS\KDN\DOCUMENTS\VISUAL STUDIO 2010\PROJECTS\CALC\DEBUG\CALC.ILK
C:\USERS\KDN\DOCUMENTS\VISUAL STUDIO 2010\PROJECTS\CALC\DEBUG\CALC.EXE
C:\USERS\KDN\DOCUMENTS\VISUAL STUDIO 2010\PROJECTS\CALC\DEBUG\CALC.PDB
C:\PROGRAM FILES (X86)\MICROSOFT VISUAL STUDIO 10.0\VC\LIB\MSVCRTD.LIB
C:\PROGRAM FILES (X86)\MICROSOFT VISUAL STUDIO 10.0\VC\LIB\OLDNAMES.LIB
